Animated Population pyramids in R: part 1 – NHS-R Community Quarto website
…
My data still has columns for each year separately, so I created column ‘year’ and changed data structure

Superseded function gather()

gather()has been superseded in {tidyr} part of {tidyverse} and it a message may appear to suggest using pivot_longer(). The code will still run but there will be no development or maintenance for this function.

library(tidyr)
# df2 <- gather(df1, "year", "population", 4:29)
df2 <- pivot_longer(df1, cols = 4:29,
                    names_to = "year",
                    values_to = "population")

print(df2, n = 10)

# A tibble: 2,080 × 6
   CODE      AREA                            `AGE GROUP` gender year  population
   <chr>     <chr>                           <chr>       <chr>  <chr>      <dbl>
 1 E38000144 NHS Sandwell and West Birmingh… 0-4         Male   2018      19007 
 2 E38000144 NHS Sandwell and West Birmingh… 0-4         Male   2019      18803 
 3 E38000144 NHS Sandwell and West Birmingh… 0-4         Male   2020      18578.
 4 E38000144 NHS Sandwell and West Birmingh… 0-4         Male   2021      18219 
 5 E38000144 NHS Sandwell and West Birmingh… 0-4         Male   2022      17923.
 6 E38000144 NHS Sandwell and West Birmingh… 0-4         Male   2023      17780.
 7 E38000144 NHS Sandwell and West Birmingh… 0-4         Male   2024      17794 
 8 E38000144 NHS Sandwell and West Birmingh… 0-4         Male   2025      17790.
 9 E38000144 NHS Sandwell and West Birmingh… 0-4         Male   2026      17802.
10 E38000144 NHS Sandwell and West Birmingh… 0-4         Male   2027      17841.
# ℹ 2,070 more rows
…
