Fuzzy joining tables using string distance methods – NHS-R Community Quarto website
…
If you want to follow along, download the list of STPs and ICBs from the ONS Geoportal site.

stps <- readxl::read_excel(paste0(here::here(), "/STP_APR_2021_EN_NC.xlsx")) |>
  select(code = STP21CDH, description = STP21NM) |>
  arrange(code)

stps

# A tibble: 42 × 2
   code  description                           
   <chr> <chr>                                 
 1 QE1   Healthier Lancashire and South Cumbria
 2 QF7   South Yorkshire and Bassetlaw         
 3 QGH   Herefordshire and Worcestershire      
 4 QH8   Mid and South Essex                   
 5 QHG   Bedfordshire, Luton and Milton Keynes 
 6 QHL   Birmingham and Solihull               
 7 QHM   Cumbria and North East                
 8 QJ2   Joined Up Care Derbyshire             
 9 QJG   Suffolk and North East Essex          
10 QJK   Devon                                 
# ℹ 32 more rows

icbs <- readxl::read_excel(paste0(here::here(), "/ICB_JUL_2022_EN_NC.xlsx")) |>
  select(code = ICB22CDH, description = ICB22NM) |>
  arrange(code)

icbs

# A tibble: 42 × 2
   code  description                                                    
   <chr> <chr>                                                          
 1 QE1   NHS Lancashire and South Cumbria Integrated Care Board         
 2 QF7   NHS South Yorkshire Integrated Care Board                      
 3 QGH   NHS Herefordshire and Worcestershire Integrated Care Board     
 4 QH8   NHS Mid and South Essex Integrated Care Board                  
 5 QHG   NHS Bedfordshire, Luton and Milton Keynes Integrated Care Board
 6 QHL   NHS Birmingham and Solihull Integrated Care Board              
 7 QHM   NHS North East and North Cumbria Integrated Care Board         
 8 QJ2   NHS Derby and Derbyshire Integrated Care Board                 
 9 QJG   NHS Suffolk and North East Essex Integrated Care Board         
10 QJK   NHS Devon Integrated Care Board                                
# ℹ 32 more rows
…
We can use the igraph package to construct and manipulate graphs. First, let’s construct a table where we have names from the first table as nodes of one type, and the names from the second table as nodes of the other type.

# the column `name` is special in a named graph. it will uniquely identify each vertex.
vertices <- dplyr::bind_rows(
  .id = "type",
  icbs = icbs |> mutate(name = paste0("icb_", code)),
  stps = stps |> mutate(name = paste0("stp_", code))
) |>
  dplyr::relocate(name, .before = dplyr::everything()) |>
  # the "type" column needs to be a logical vector, so we use TRUE for the first type, and FALSE for the second
  dplyr::mutate(dplyr::across("type", ~ .x == "icbs"))

vertices

# A tibble: 84 × 4
   name    type  code  description                                              
   <chr>   <lgl> <chr> <chr>                                                    
 1 icb_QE1 TRUE  QE1   NHS Lancashire and South Cumbria Integrated Care Board   
 2 icb_QF7 TRUE  QF7   NHS South Yorkshire Integrated Care Board                
 3 icb_QGH TRUE  QGH   NHS Herefordshire and Worcestershire Integrated Care Boa…
 4 icb_QH8 TRUE  QH8   NHS Mid and South Essex Integrated Care Board            
 5 icb_QHG TRUE  QHG   NHS Bedfordshire, Luton and Milton Keynes Integrated Car…
 6 icb_QHL TRUE  QHL   NHS Birmingham and Solihull Integrated Care Board        
 7 icb_QHM TRUE  QHM   NHS North East and North Cumbria Integrated Care Board   
 8 icb_QJ2 TRUE  QJ2   NHS Derby and Derbyshire Integrated Care Board           
 9 icb_QJG TRUE  QJG   NHS Suffolk and North East Essex Integrated Care Board   
10 icb_QJK TRUE  QJK   NHS Devon Integrated Care Board                          
# ℹ 74 more rows
…
edges

# A tibble: 1,764 × 3
   to      from    weight
   <chr>   <chr>    <dbl>
 1 icb_QE1 stp_QE1  0.792
 2 icb_QE1 stp_QF7  0.519
 3 icb_QE1 stp_QGH  0.52 
 4 icb_QE1 stp_QH8  0.462
 5 icb_QE1 stp_QHG  0.483
 6 icb_QE1 stp_QHL  0.542
 7 icb_QE1 stp_QHM  0.625
 8 icb_QE1 stp_QJ2  0.429
 9 icb_QE1 stp_QJG  0.464
10 icb_QE1 stp_QJK  0.12 
# ℹ 1,754 more rows
…
